
////////////////////////////////////////////////////////////////////////////////////////////////////////////////////////////////////////////////////////////////////////////////////////////////////////
// Copyright (c) Microsoft Corporation.  All rights reserved.
////////////////////////////////////////////////////////////////////////////////////////////////////////////////////////////////////////////////////////////////////////////////////////////////////////

using System.Reflection;
using System.Runtime.CompilerServices;

[assembly: AssemblyTitle("MFDeploy")]
[assembly: AssemblyDescription("")]
[assembly: AssemblyConfiguration("Debug")]
[assembly: AssemblyCompany("Microsoft Corporation")]
[assembly: AssemblyProduct("Microsoft .NET Micro Framework")]
[assembly: AssemblyCopyright("Copyright (C) Microsoft Corporation.  All rights reserved.")]
[assembly: AssemblyTrademark(".NET is a trademark of Microsoft Corporation.")]
[assembly: AssemblyFileVersion("4.1.2821.0")]
[assembly: AssemblyVersion("4.1.2821.0")]
[assembly: AssemblyInformationalVersion("4.1.2821.0")]
